…
# Compute fast (approximate) Shapley values using 10 Monte Carlo repititions
system.time({  # estimate run time
  set.seed(5038)
  shap <- fastshap(rfo, X = X, pred_wrapper = pfun, nsim = 10)
})
#>    user  system elapsed 
#>  92.115   4.065  19.856

# Results are returned as a tibble (with the additional "shap" class)
shap
#> # A tibble: 3,000 x 10
#>        x.1    x.2     x.3    x.4     x.5      x.6      x.7     x.8      x.9
#>      <dbl>  <dbl>   <dbl>  <dbl>   <dbl>    <dbl>    <dbl>   <dbl>    <dbl>
#>  1  1.44    1.72  -0.641  -2.61  -0.622  -0.116   -3.46e-2  0.132  -0.0323 
#>  2 -2.50    1.32   0.931   0.152  1.48   -0.0499  -7.64e-2  0.0978  0.00546
#>  3  1.27    1.13  -0.647  -3.26  -0.684   0.0865   6.70e-3  0.0186  0.0290 
#>  4  0.331  -2.27  -0.0842  4.12   1.71   -0.0572  -4.23e-4 -0.0348 -0.0191 
#>  5 -1.06   -1.47  -0.537   3.85   1.23   -0.0519  -6.37e-3  0.102   0.0698 
#>  6 -1.32    1.82  -0.994  -2.35   1.12   -0.0366  -1.10e-2 -0.0795 -0.284  
#>  7  1.70    1.85   1.33   -4.95  -0.0251  0.00369  1.11e-1 -0.0315 -0.113  
#>  8  0.0995 -1.97   0.279   3.80  -0.278  -0.0995   4.03e-2 -0.0653  0.0301 
#>  9  2.09    0.847 -1.16    4.55  -0.923   0.0280  -9.44e-2 -0.0471  0.0301 
#> 10  0.865  -2.56  -0.971  -4.84   0.813  -0.0323   1.08e-2 -0.0415 -0.101  
#> # … with 2,990 more rows, and 1 more variable: x.10 <dbl>
```
…
``` r
# Load required packages
library(doParallel)
#> Loading required package: foreach
#> Loading required package: iterators
#> Loading required package: parallel

# Set up parallel backend
registerDoParallel(5)

# Compute Shapley values in parallel
fastshap(rfo, feature_names = names(X), X = X, pred_wrapper = pfun, nsim = 10, 
         .parallel = TRUE)
#> # A tibble: 3,000 x 10
#>        x.1    x.2     x.3   x.4    x.5      x.6     x.7     x.8      x.9
#>      <dbl>  <dbl>   <dbl> <dbl>  <dbl>    <dbl>   <dbl>   <dbl>    <dbl>
#>  1 -0.580   2.16  -0.0954 -2.94 -0.172 -0.0680  -0.0450 -0.0797 -0.0978 
#>  2 -2.09    1.19   0.601  -1.31  0.649  0.0142   0.0562  0.0537  0.109  
#>  3  1.36    1.65  -1.69   -4.53 -1.26  -0.0793   0.0438 -0.0422  0.0856 
#>  4  2.24   -3.30   0.0673  3.10  0.334  0.0188  -0.0743  0.0353 -0.0237 
#>  5 -1.22   -1.48  -0.294   4.63  1.30  -0.0165  -0.0242  0.0437  0.0666 
#>  6 -1.62    0.995 -0.543  -1.28  1.81  -0.00611 -0.0103  0.107  -0.199  
#>  7  1.96    1.77   1.68   -5.77 -0.482  0.0909   0.0653 -0.0759  0.0214 
#>  8  0.0904 -2.74   0.312   3.31  0.224  0.0224   0.145   0.0658 -0.0573 
#>  9  0.631   1.97  -0.833   4.53 -0.707 -0.0154   0.0170 -0.0599 -0.00543
#> 10  0.658  -2.92  -1.16   -4.88  1.64  -0.0959   0.0220 -0.157  -0.283  
#> # … with 2,990 more rows, and 1 more variable: x.10 <dbl>
```
…
