Boston housing example
…
Finally, we compute approximate Shapley values for all 506 training observations using the fastshap::fastshap() function with \(B = 50\) Monte Carlo repetitions, and plot a summary of the results:

# Comput approximate Shapley values
set.seed(945)  # for reproducibility
t1 <- system.time(  # time the results
  res_fastshap <- fastshap(rfo, X = X, nsim = 100, pred_wrapper = pfun)
)

# Print results
res_fastshap

## # A tibble: 506 x 15
##       lon      lat   crim       zn  indus     chas   nox     rm     age
##     <dbl>    <dbl>  <dbl>    <dbl>  <dbl>    <dbl> <dbl>  <dbl>   <dbl>
##  1 -1.06   0.147   0.199   0.0583   0.809 -0.0297  0.136 -0.699  0.0322
##  2 -1.00  -0.0290  0.0835 -0.0341  -0.147 -0.0132  0.246 -0.714 -0.165 
##  3 -0.809  0.0577  0.357   0.00292 -0.129 -0.0399  0.645  4.49   0.103 
##  4 -0.733  0.00357 0.340  -0.0139   1.01  -0.00726 0.480  2.91   0.275 
##  5 -0.740  0.186   0.349  -0.0416   1.53  -0.0297  0.776  4.39   0.299 
##  6 -0.553  0.0993  0.400   0.00156  1.35  -0.0362  0.465 -0.602  0.213 
##  7 -0.751  0.172   0.408  -0.0231  -0.143 -0.0348  0.229 -1.51   0.333 
##  8 -0.832  0.102   0.550  -0.0567  -0.289 -0.0749  0.337 -0.917 -0.315 
##  9 -1.13  -0.129   0.140  -0.0549  -0.258 -0.0442  0.129 -2.14  -0.606 
## 10 -0.759 -0.121   0.305  -0.0634  -0.309 -0.0375  0.211 -1.29  -0.256 
## #  with 496 more rows, and 6 more variables: dis <dbl>, rad <dbl>,
## #   tax <dbl>, ptratio <dbl>, b <dbl>, lstat <dbl>
…
