…
## Global explanations

Aside from explaining individual prediction (i.e., *local explanation*), it can be useful to aggregate the results of several (i.e., all of the training predictions) into an overall global summary about the model (i.e., global explanations). However, computing Shapley values for a large number of observations can be quite computationally expensive, especially when using the MC approach. However, [fastshap](https://cran.r-project.org/package=fastshap) is quite efficient compared to alternative implementations^[For large-ish data sets, you should always run `it `explain()` on a smaller subsample with `nsim = 1` to gauge how much compute you can afford]. The code chunk below computes Shapley explanations for each passenger in the training data using 1000 MC repetitions, and coerces the resulting matrix to a [tibble](https://cran.r-project.org/package=tibble) (for nicer printing).


```r
set.seed(2224)  # for reproducibility
ex.t1 <- explain(rfo, X = X, pred_wrapper = pfun, nsim = 100, adjust = TRUE,
                 shap_only = FALSE)
tibble::as_tibble(ex.t1$shapley_values)
```

```
## # A tibble: 1,309 × 5
##    pclass      age     sex      sibsp    parch
##     <dbl>    <dbl>   <dbl>      <dbl>    <dbl>
##  1  0.231  0.00815  0.315   0.0205    -0.00924
##  2  0.140  0.330   -0.0767  0.00589    0.0772 
##  3  0.161  0.0293   0.126  -0.0263    -0.0252 
##  4  0.214 -0.0231  -0.186   0.0156     0.00436
##  5  0.193 -0.0328   0.286  -0.0183    -0.0468 
##  6  0.171 -0.0320  -0.197   0.0000595 -0.00303
##  7  0.176 -0.127    0.345  -0.0103     0.00340
##  8  0.151 -0.0713  -0.189  -0.00363   -0.0138 
##  9  0.239  0.00252  0.296   0.0437     0.00567
## 10  0.112 -0.111   -0.210   0.00154   -0.00452
## # ℹ 1,299 more rows
```
…
