fastshap-vs-shap • fastshap
…
Finally, we compute ApproxSHAP values for all 506 training observations using the fastshap::explain() function with \(B = 50\) Monte Carlo repetitions, and plot a summary of the results:

# Comput ApproxSHAP values
set.seed(945)  # for reproducibility
t1 <- system.time(  # time the results
  res_fastshap <- explain(rfo, X = X, nsim = 100, pred_wrapper = pfun)
)

# Print results
res_fastshap

## # A tibble: 506 x 15
##       lon      lat    crim      zn  indus     chas    nox     rm      age
##     <dbl>    <dbl>   <dbl>   <dbl>  <dbl>    <dbl>  <dbl>  <dbl>    <dbl>
##  1 -1.15   0.0758   0.153   0.0772  0.861 -1.15e-2 0.0191 -0.208  8.66e-4
##  2 -1.12   0.00242  0.122  -0.0249 -0.143 -4.68e-2 0.402  -0.530 -1.40e-1
##  3 -0.760  0.0619   0.476  -0.0127 -0.238 -2.75e-2 0.604   4.33   1.61e-1
##  4 -0.671  0.0262   0.288  -0.0161  0.874 -2.39e-2 0.556   3.37   1.52e-1
##  5 -0.653  0.156    0.291  -0.0157  1.64  -4.49e-2 0.568   4.73   3.05e-1
##  6 -0.688  0.0565   0.367   0.0133  1.33  -3.51e-2 0.451  -0.307  1.04e-1
##  7 -0.622  0.208    0.378  -0.0503 -0.225 -3.94e-2 0.163  -1.40   2.86e-1
##  8 -0.530  0.0419   0.606  -0.0324 -0.257 -7.96e-4 0.256  -1.29  -3.63e-1
##  9 -0.931 -0.166   -0.0228 -0.0404 -0.304 -3.24e-2 0.0994 -1.46  -4.33e-1
## 10 -0.943 -0.0535   0.259  -0.0547 -0.291 -5.03e-2 0.218  -1.39  -2.24e-1
## # … with 496 more rows, and 6 more variables: dis <dbl>, rad <dbl>, tax <dbl>,
## #   ptratio <dbl>, b <dbl>, lstat <dbl>
…
