fastshap • fastshap
…
# Compute fast (approximate) Shapley values using 10 Monte Carlo repetitions
system.time({  # estimate run time
  set.seed(5038)
  shap <- explain(rfo, X = X, pred_wrapper = pfun, nsim = 10)
})
#>    user  system elapsed 
#>  89.263   1.672  17.982

# Results are returned as a tibble (with the additional "shap" class)
shap
#> # A tibble: 3,000 x 10
#>       x.1    x.2     x.3    x.4    x.5      x.6      x.7      x.8     x.9
#>     <dbl>  <dbl>   <dbl>  <dbl>  <dbl>    <dbl>    <dbl>    <dbl>   <dbl>
#>  1 -0.545  1.12  -1.68   -1.70  -0.281 -0.0953  -1.55e-2 -0.00274 -0.0435
#>  2 -3.20   1.05   1.03   -0.815  0.786 -0.00719  1.02e-1  0.114    0.0788
#>  3  2.07   2.36  -0.823  -2.92  -1.53  -0.0402   7.70e-3  0.00655  0.0435
#>  4  0.623 -2.78   0.0688  3.17   0.753  0.0816   9.27e-4  0.0741   0.0564
#>  5 -0.644 -0.258 -0.207   3.12   0.918 -0.0159   3.83e-2  0.0155   0.0315
#>  6 -0.929  0.506 -1.05   -1.70   1.51   0.0299   5.41e-2  0.0118  -0.234 
#>  7  2.99   2.48   1.23   -3.46  -0.398  0.0639  -6.17e-3 -0.0237  -0.0353
#>  8 -0.388 -1.84   0.532   4.64  -0.487 -0.0215   2.77e-2 -0.0346   0.0496
#>  9  0.647  0.783 -0.769   3.35  -1.13   0.0171   3.70e-3 -0.0348   0.0866
#> 10  0.832 -1.22  -0.403  -4.19   0.560 -0.0247  -1.82e-2 -0.00990 -0.0256
#> # … with 2,990 more rows, and 1 more variable: x.10 <dbl>
…
Parallel execution

With fastshap you can compute contributions for multiple features in parallel using any parallel backend supported by the foreach package. This is illustrated in the code chunk below.

# Load required packages
library(doParallel)

# Set up parallel backend
cl <- if (.Platform$OS.type == "unix") 8 else makeCluster(8)
registerDoParallel(cl)

# Compute Shapley values in parallel
explain(rfo, X = X, pred_wrapper = pfun, nsim = 10, .parallel = TRUE)
#> # A tibble: 3,000 x 10
#>       x.1    x.2     x.3    x.4     x.5     x.6      x.7      x.8      x.9
#>     <dbl>  <dbl>   <dbl>  <dbl>   <dbl>   <dbl>    <dbl>    <dbl>    <dbl>
#>  1  0.594  0.696 -0.901  -0.999  0.0571 -0.0717 -0.102    0.0507  -0.0322 
#>  2 -4.74   0.396  0.950   2.21   0.811  -0.0282  0.103   -0.0356   0.0914 
#>  3  1.22   1.32  -0.506  -3.15  -1.03   -0.0701 -0.0696   0.0451   0.0362 
#>  4  0.839 -1.91  -0.437   3.74   0.948  -0.0266 -0.0225  -0.0125   0.00715
#>  5 -1.04  -0.403 -0.245   1.73   1.33    0.0213  0.0617   0.0685   0.0235 
#>  6 -1.51   0.999 -0.761  -1.83   0.565   0.0681  0.00792  0.0366  -0.145  
#>  7  0.587  2.74   1.50   -3.62  -0.496   0.0425  0.00124 -0.195   -0.0112 
#>  8 -0.882 -2.24  -0.0866  2.63  -0.260  -0.0588  0.0177   0.0210   0.0111 
#>  9  1.93   1.62  -0.595   6.06  -1.54    0.0828 -0.0525  -0.00607  0.141  
#> 10  0.967 -1.73  -0.260  -4.15   0.478  -0.0516  0.0515  -0.0419   0.00155
#> # … with 2,990 more rows, and 1 more variable: x.10 <dbl>
…
