Fast approximate Shapley values — explain • fastshap
…
# Load the sample data; ?datasets::mtcars for details
data(mtcars)

# Fit a projection pursuit regression model
mtcars.ppr <- ppr(mpg ~ ., data = mtcars, nterms = 1)

# Compute approximate Shapley values using 10 Monte Carlo simulations
set.seed(101)  # for reproducibility
shap <- explain(mtcars.ppr, X = subset(mtcars, select = -mpg), nsim = 10,
                pred_wrapper = predict)
shap
#> # A tibble: 32 x 10
#>        cyl      disp     hp    drat     wt   qsec      vs     am    gear    carb
#>      <dbl>     <dbl>  <dbl>   <dbl>  <dbl>  <dbl>   <dbl>  <dbl>   <dbl>   <dbl>
#>  1  0.0160  0.000321  1.31   0.0604  3.17  -1.43  -0.404   0.254  0.545  -0.0140
#>  2  0.367   0.00597   1.07  -0.0611  0.446 -1.72  -0.188   0.370  0.723  -0.0461
#>  3 -1.36    0.0387    2.35  -0.131   1.87   1.05   0.386   0.960 -0.0794  0.0550
#>  4  0.208   0.000276 -0.404  0.239   0.638  0.777  0.232  -0.255 -1.64    0.0563
#>  5  0.943  -0.0161   -1.19   0.200  -0.143 -0.901 -0.0805 -0.476 -1.54    0.0456
#>  6 -0.324  -0.00290   0.959  0.521  -4.34   0.868  0.360  -0.337 -1.88    0.0694
#>  7  0.585  -0.0211   -1.27   0.248  -0.561 -1.13  -0.286  -0.163 -0.867  -0.0335
#>  8 -0.248   0.0193    3.74  -0.0312 -1.22   0.830  0.308  -0.263  0.816   0.0166
#>  9 -0.904   0.0131    2.41  -0.0264 -3.10   3.74   0.413  -0.545 -0.103   0.0325
#> 10 -0.339   0.00614  -0.759 -0.181  -3.63   0.277  0.374  -0.418  0.644  -0.0674
#> # … with 22 more rows
…
